{
  "appId": "io.ionic.starter",
  "appName": "rox",
  "bundledWebRuntime": false,
  "npmClient": "npm",
  "webDir": "build",
  "server": {
  	"url": "https://www.game-on.live"
  },
  "cordova": {},
  "linuxAndroidStudioPath": "/home/whiskey/Eis/android-studio/bin/studio.sh"
}
